            <plugin>
                <groupId>com.github.eirslett</groupId>
                <artifactId>frontend-maven-plugin</artifactId>
                <version>${frontend-maven-plugin.version}</version>
                <executions>
                    <!-- Install our node and npm version to run npm/node scripts-->
                    <execution>
                        <id>install node and npm</id>
                        <goals>
                            <goal>install-node-and-npm</goal>
                        </goals>
                        <configuration>
                            <nodeVersion>v16.13.1</nodeVersion>
                        </configuration>
                    </execution>
                    <!-- Install all project dependencies -->
                    <execution>
                        <id>npm install</id>
                        <goals>
                            <goal>npm</goal>
                        </goals>
                        <!-- optional: default phase is "generate-resources" -->
                        <phase>generate-resources</phase>
                        <!-- Optional configuration which provides for running any npm command -->
                        <configuration>
                            <arguments>install</arguments>
                        </configuration>
                    </execution>
                    <!-- Build and minify static files -->
                    <execution>
                        <id>npm run build</id>
                        <goals>
                            <goal>npm</goal>
                        </goals>
                        <configuration>
                            <arguments>run build</arguments>
                        </configuration>
                    </execution>
                    <!-- Run Unit tests with Jest -->
                    <execution>
                        <id>npm run test:unit</id>
                        <goals>
                            <goal>npm</goal>
                        </goals>
                        <phase>test</phase>
                        <configuration>
                            <arguments>run test:unit</arguments>
                        </configuration>
                    </execution>
                    
                    
                    <!-- Run End2End tests with Nightwatch -->
                    <!--
                    <execution>
                    <id>npm run test:e2e</id>
                    <goals>
                        <goal>npm</goal>
                    </goals>
                    <phase>test</phase>
                    <configuration>
                          <arguments>run test:e2e</arguments>
                    </configuration>
                    </execution>
                    -->
                </executions>
            </plugin>